encoder/encoder.vcd
$date
  Tue Sep 20 15:52:41 2022
$end
$version
  GHDL v0
$end
$timescale
  1 fs
$end
$var reg 3 ! o[2:0] $end
$var reg 8 " i[7:0] $end
$scope module encoder_8x3 $end
$var reg 8 # i[7:0] $end
$var reg 3 $ o[2:0] $end
$upscope $end
$enddefinitions $end
#0
b000 !
b00000001 "
b00000001 #
b000 $
#1000000
b100 !
b00000010 "
b00000010 #
b100 $
#2000000
b010 !
b00000100 "
b00000100 #
b010 $
#3000000
b110 !
b00001000 "
b00001000 #
b110 $
#4000000
b001 !
b00010000 "
b00010000 #
b001 $
#5000000
b101 !
b00100000 "
b00100000 #
b101 $
#6000000
b011 !
b01000000 "
b01000000 #
b011 $
#7000000
b111 !
b10000000 "
b10000000 #
b111 $
